Práctica 1
…
## Rows: 104 Columns: 9

## ── Column specification ────────────────────────────────────────────────────────
## Delimiter: ","
## chr (2): NewspaperInserts, Website_Campaign
## dbl (7): NewVolSales, Base_Price, Radio, InStore, Discount, TV, Stout

## 
## ℹ Use `spec()` to retrieve the full column specification for this data.
## ℹ Specify the column types or set `show_col_types = FALSE` to quiet this message.

df_mmm 

## # A tibble: 104 × 9
##    NewVolSales Base_Price Radio InStore NewspaperInserts Discount    TV Stout
##          <dbl>      <dbl> <dbl>   <dbl> <chr>               <dbl> <dbl> <dbl>
##  1       19564       15.0   245    15.5 <NA>                0     102.   2.28
##  2       19387       15.0   314    16.4 <NA>                0      76.7  2.22
##  3       23889       14.6   324    62.7 <NA>                0.05  132.   2.01
##  4       20055       15.3   298    16.6 <NA>                0     120.   2.20
##  5       20064       15.6   279    41.5 <NA>                0.045 103.   1.82
##  6       19481       15.5   259    20.4 <NA>                0     128.   2.29
##  7       19509       15.8   235    32.5 <NA>                0      94.7  2.08
##  8       19033       15.5   290    16.6 <NA>                0     119.   2.64
##  9       20498       15.0   315    44.8 <NA>                0.035 123.   2.28
## 10       19509       15.5   318    27.3 <NA>                0.045 187.   2.44
## # … with 94 more rows, and 1 more variable: Website_Campaign <chr>
…
En primer lugar, seleccionamos y almacenamos las columnas tv, radio y stout en un nuevo data frame, al que denotaremos por df_media

df_media <- df_mmm %>% 
  select(tv, radio, stout)

Usamos el código provisto por el ejercicio:

df_media <- df_media %>%
  pivot_longer(everything())

Echemos un vistazo al data frame que tenemos.

df_media

## # A tibble: 312 × 2
##    name   value
##    <chr>  <dbl>
##  1 tv    102.  
##  2 radio 245   
##  3 stout   2.28
##  4 tv     76.7 
##  5 radio 314   
##  6 stout   2.22
##  7 tv    132.  
##  8 radio 324   
##  9 stout   2.01
## 10 tv    120.  
## # … with 302 more rows
…
Ejercicio 8

En primer lugar, veamos qué tipo de valores toma la columna in_store

df_mmm

## # A tibble: 104 × 11
##    new_vol_sales base_price radio in_store newspaper_inser… discount    tv stout
##            <dbl>      <dbl> <dbl>    <dbl>            <dbl>    <dbl> <dbl> <dbl>
##  1         19564       15.0   245     15.5                0    0     102.   2.28
##  2         19387       15.0   314     16.4                0    0      76.7  2.22
##  3         23889       14.6   324     62.7                0    0.05  132.   2.01
##  4         20055       15.3   298     16.6                0    0     120.   2.20
##  5         20064       15.6   279     41.5                0    0.045 103.   1.82
##  6         19481       15.5   259     20.4                0    0     128.   2.29
##  7         19509       15.8   235     32.5                0    0      94.7  2.08
##  8         19033       15.5   290     16.6                0    0     119.   2.64
##  9         20498       15.0   315     44.8                0    0.035 123.   2.28
## 10         19509       15.5   318     27.3                0    0.045 187.   2.44
## # … with 94 more rows, and 3 more variables: website_campaign <dbl>,
## #   facebook <dbl>, twitter <dbl>
…
